I0002   Checking package files in directory tests/pkg004/somepkg/
E0011   Directory tests/pkg004/somepkg/ has bad permissions: 0644
E0023   IO error for operation on tests/pkg004/somepkg/README: Permission denied (os error 13)
E0023   IO error for operation on tests/pkg004/somepkg/README.md: Permission denied (os error 13)
E0023   IO error for operation on tests/pkg004/somepkg/h1somefile: Permission denied (os error 13)
E0023   IO error for operation on tests/pkg004/somepkg/hotherfile: Permission denied (os error 13)
E0023   IO error for operation on tests/pkg004/somepkg/hsomefile: Permission denied (os error 13)
E0023   IO error for operation on tests/pkg004/somepkg/otherfile: Permission denied (os error 13)
E0023   IO error for operation on tests/pkg004/somepkg/somefile: Permission denied (os error 13)
E0009   One of README/README.md/README.txt must exist
