I0002   Checking package files in directory tests/e0017/somepkg/
E0017   PDF error detected in tests/e0017/somepkg/x.pdf
Syntax Error (1293042): Illegal character ')'
Syntax Error: Couldn't find trailer dictionary
Syntax Error (1293042): Illegal character ')'
Syntax Error: Couldn't find trailer dictionary
Syntax Error: Couldn't read xref table

