I0002   Checking package files in directory tests/e0025_42_43/somepkg/
E0025   Duplicate names when ignoring letter case for: tests/e0025_42_43/somepkg/readme.txt
   >>> tests/e0025_42_43/somepkg/README.txt (file)
   >>> tests/e0025_42_43/somepkg/Readme.TXT (file)
E0025   Duplicate names when ignoring letter case for: tests/e0025_42_43/somepkg/tex/xyz.tex
   >>> tests/e0025_42_43/somepkg/tex/XYZ.tex (file)
   >>> tests/e0025_42_43/somepkg/tex/xyz.tex (file)
I0003   Checking TDS zip archive tests/e0025_42_43/somepkg.tds.zip
E0043   Symlink doc/somepkg/readme.txt found in TDS zip archive
E0042   TDS zip archive: duplicate names when ignoring letter case for: doc/somepkg/readme.txt
   >>> doc/somepkg/README.txt (file)
   >>> doc/somepkg/Readme.TXT (file)
E0042   TDS zip archive: duplicate names when ignoring letter case for: source/latex/somepkg/xyz.tex
   >>> source/latex/somepkg/XYZ.tex (file)
   >>> source/latex/somepkg/xyz.tex (file)
